# Blender v2.80 (sub 75) OBJ File: 'Alphabet.blend'
# www.blender.org
mtllib 1.mtl
o 1_Curve.002
v 0.735574 0.073413 -0.092552
v 0.735574 0.073413 -0.774552
v 0.833574 0.073413 -0.774552
v 0.833574 0.073413 -0.092552
v 0.735574 -0.046587 -0.092552
v 0.735574 -0.046587 -0.774552
v 0.833574 -0.046587 -0.774552
v 0.833574 -0.046587 -0.092552
v 0.735574 -0.046587 -0.092552
v 0.725574 -0.036587 -0.082552
v 0.735574 -0.046587 -0.774552
v 0.725574 -0.036587 -0.784552
v 0.833574 -0.046587 -0.774552
v 0.843574 -0.036587 -0.784552
v 0.833574 -0.046587 -0.092552
v 0.843574 -0.036587 -0.082552
v 0.725574 -0.036587 -0.082552
v 0.725574 0.063413 -0.082552
v 0.725574 -0.036587 -0.784552
v 0.725574 0.063413 -0.784552
v 0.843574 -0.036587 -0.784552
v 0.843574 0.063413 -0.784552
v 0.843574 -0.036587 -0.082552
v 0.843574 0.063413 -0.082552
v 0.725574 0.063413 -0.082552
v 0.735574 0.073413 -0.092552
v 0.725574 0.063413 -0.784552
v 0.735574 0.073413 -0.774552
v 0.843574 0.063413 -0.784552
v 0.833574 0.073413 -0.774552
v 0.843574 0.063413 -0.082552
v 0.833574 0.073413 -0.092552
vn 0.0000 1.0000 0.0000
vn 0.0000 -1.0000 0.0000
vn -0.4082 -0.8165 0.4082
vn -0.4082 -0.8165 -0.4082
vn 0.4082 -0.8165 -0.4082
vn 0.4082 -0.8165 0.4082
vn -0.7071 0.0000 0.7071
vn -0.7071 0.0000 -0.7071
vn 0.7071 0.0000 -0.7071
vn 0.7071 0.0000 0.7071
vn -0.4082 0.8165 0.4082
vn -0.4082 0.8165 -0.4082
vn 0.4082 0.8165 -0.4082
vn 0.4082 0.8165 0.4082
usemtl None
s off
f 1//1 3//1 2//1
f 1//1 4//1 3//1
f 7//2 5//2 6//2
f 8//2 5//2 7//2
s 1
f 10//3 12//4 11//4 9//3
f 12//4 14//5 13//5 11//4
f 14//5 16//6 15//6 13//5
f 16//6 10//3 9//3 15//6
f 18//7 20//8 19//8 17//7
f 20//8 22//9 21//9 19//8
f 22//9 24//10 23//10 21//9
f 24//10 18//7 17//7 23//10
f 26//11 28//12 27//12 25//11
f 28//12 30//13 29//13 27//12
f 30//13 32//14 31//14 29//13
f 32//14 26//11 25//11 31//14
